<svg width="32" height="32" viewBox="0 0 32 32" fill="none" xmlns="http://www.w3.org/2000/svg">
    <circle cx="16" cy="16" r="15" stroke="white" stroke-width="2"/>
    <text x="12" y="20" fill="white">3</text>
</svg>